{
    background: { type: 'img', name: 'motel.webp' },
    title: 'C’est là que tout commence...',
    content: 'Vous vous trouvez dans une petite chambre d’hôtel bien sympatique. \n\
        Elle est parfaitement équipée : une lampe électrique, un téléviseur dernier cri, un micro-ondes SEB CFPT426800 Délice qui saura parfaitement cuire vos Tupperware de moins de 31 centimètres de diamètre grâce à ses trois modes de cuisson ! \n\
        Tant de possibilités s’offrent à vous...',
    actions: [
        { title: 'Dormir dans le lit', to: 'sleep/begin' },
        { title: 'Sortir de la pièce', to: 'out/begin' },
    ],
}
