{
    background: { type: 'img', name: 'sleep.png' },
    title: '[ronflement]',
    content: 'Vous vous endormez bien paisiblement.',
    actions: [
        { title: 'Continuer', to: 'sleep/wake_up' },
    ]
}
