{
    background: { type: 'img', name: 'door.png' },
    title: 'Toc toc toc ?',
    content: 'Horreur, la porte ne fonctionne pas ! Vous êtes enfermés à clé. Prenant votre courage à deux mains, votre unique réaction cohsiste à :',
    actions: [
        { title: 'Paniquer', to: 'out/panic'},
        { title: 'Paniquer', to: 'out/panic' },
        { title: 'Paniquer', to: 'out/panic' },
    ]
}
